pm\controllers\ControllerDevolucao.class
pm\controllers\ControllerFuncionario.class
pm\controllers\ControllerCiclista$CiclistaNovo.class
pm\models\MeioDePagamento.class
pm\util\JavalinApp.class
pm\models\Aluguel.class
pm\controllers\ControllerAluguel.class
pm\controllers\ControllerCartaoDeCredito.class
pm\controllers\ControllerCiclista.class
pm\controllers\ControllerCiclista$PostCiclista.class
pm\models\Ciclista.class
pm\controllers\ControllerCiclista$CiclistaNovo$PassaporteNovo.class
pm\models\Cobranca.class
pm\controllers\ControllerAluguel$Email.class
pm\models\Ciclista$Passaporte.class
pm\controllers\ControllerCiclista$MeioDePagamentoNovo.class
pm\Main.class
pm\models\Devolucao.class
pm\controllers\ControllerDevolucao$Tranca.class
pm\models\Funcionario.class
